%YAML 1.1
%TAG !u! tag:unity3d.com,2011:
--- !u!114 &11400000
MonoBehaviour:
  m_ObjectHideFlags: 0
  m_CorrespondingSourceObject: {fileID: 0}
  m_PrefabInstance: {fileID: 0}
  m_PrefabAsset: {fileID: 0}
  m_GameObject: {fileID: 0}
  m_Enabled: 1
  m_EditorHideFlags: 0
  m_Script: {fileID: 11500000, guid: c64a003418908a64c9621c87c37be8ed, type: 3}
  m_Name: Crunchy Crush
  m_EditorClassIdentifier: 
  clips:
  - {fileID: 8300000, guid: 646c27715f06320498b990f25a606f1b, type: 3}
  randomPitch: 1
  randomVolume: 1
  volume: 1
  mixerGroup: {fileID: -3802781192054164327, guid: 5d910e8bba4a9654a940132efbdf1829, type: 2}
