%YAML 1.1
%TAG !u! tag:unity3d.com,2011:
--- !u!114 &11400000
MonoBehaviour:
  m_ObjectHideFlags: 0
  m_CorrespondingSourceObject: {fileID: 0}
  m_PrefabInstance: {fileID: 0}
  m_PrefabAsset: {fileID: 0}
  m_GameObject: {fileID: 0}
  m_Enabled: 1
  m_EditorHideFlags: 0
  m_Script: {fileID: 11500000, guid: 8e9253636bf2648bd813257f451f8486, type: 3}
  m_Name: FoodHighlight
  m_EditorClassIdentifier: 
  effectGroup: 0
  effectGroupLayer:
    serializedVersion: 2
    m_Bits: 4294967295
  effectNameFilter: 
  combineMeshes: 0
  alphaCutOff: 0
  cullBackFaces: 1
  depthClip: 0
  normalsOption: 0
  fadeInDuration: 5
  fadeOutDuration: 5
  constantWidth: 1
  overlay: 0
  overlayColor: {r: 1, g: 0.75, b: 0.76294816, a: 1}
  overlayAnimationSpeed: 3
  overlayMinIntensity: 0
  overlayBlending: 0.614
  outline: 0.142
  outlineColor: {r: 2, g: 1.8010471, b: 0, a: 1}
  outlineWidth: 0.18
  outlineQuality: 2
  outlineDownsampling: 1
  outlineOptimalBlit: 1
  outlineVisibility: 0
  outlineIndependent: 0
  glow: 0.5
  glowWidth: 0.36
  glowQuality: 1
  glowDownsampling: 2
  glowHQColor: {r: 0.64, g: 1, b: 0, a: 1}
  glowDithering: 1
  glowOptimalBlit: 1
  glowMagicNumber1: 0.75
  glowMagicNumber2: 0.5
  glowAnimationSpeed: 1
  glowVisibility: 0
  glowBlendPasses: 1
  glowPasses:
  - offset: 6.35
    alpha: 1.56
    color: {r: 0.64, g: 1, b: 0, a: 1}
  - offset: 1.22
    alpha: 1
    color: {r: 1, g: 0, b: 0.13217449, a: 1}
  - offset: 1.96
    alpha: 1.65
    color: {r: 1, g: 0.7045614, b: 0, a: 1}
  innerGlow: 0
  innerGlowWidth: 1
  innerGlowColor: {r: 1, g: 1, b: 1, a: 1}
  innerGlowVisibility: 0
  targetFX: 0
  targetFXTexture: {fileID: 2800000, guid: 1de3c566a6c8c405b9f6f453137273ec, type: 3}
  targetFXColor: {r: 1, g: 1, b: 1, a: 1}
  targetFXRotationSpeed: 50
  targetFXInitialScale: 4
  targetFXEndScale: 1.5
  targetFXScaleToRenderBounds: 1
  targetFXTransitionDuration: 0.5
  targetFXStayDuration: 1.5
  targetFXVisibility: 1
  seeThrough: 2
  seeThroughOccluderMask:
    serializedVersion: 2
    m_Bits: 4294967295
  seeThroughOccluderMaskAccurate: 0
  seeThroughOccluderThreshold: 0.3
  seeThroughOccluderCheckInterval: 1
  seeThroughDepthOffset: 0
  seeThroughIntensity: 0.8
  seeThroughTintAlpha: 0.5
  seeThroughTintColor: {r: 1, g: 0, b: 0, a: 1}
  seeThroughNoise: 1
  seeThroughBorder: 0
  seeThroughBorderColor: {r: 0, g: 0, b: 0, a: 1}
  seeThroughBorderWidth: 0.45
  seeThroughNonOverlap: 0
  hitFxInitialIntensity: 1
  hitFxMode: 0
  hitFxFadeOutDuration: 0.25
  hitFxColor: {r: 1, g: 1, b: 1, a: 1}
